Assignment 10A
…
tidy_books <- austen_books() |>
  group_by(book) |>
  mutate(
    linenumber = row_number(),
    chapter    = cumsum(str_detect(
      text,
      regex("^chapter [\\divxlc]", ignore_case = TRUE)
    ))
  ) |>
  ungroup() |>
  unnest_tokens(word, text)

tidy_books

# A tibble: 725,055 × 4
   book                linenumber chapter word       
   <fct>                    <int>   <int> <chr>      
 1 Sense & Sensibility          1       0 sense      
 2 Sense & Sensibility          1       0 and        
 3 Sense & Sensibility          1       0 sensibility
 4 Sense & Sensibility          3       0 by         
 5 Sense & Sensibility          3       0 jane       
 6 Sense & Sensibility          3       0 austen     
 7 Sense & Sensibility          5       0 1811       
 8 Sense & Sensibility         10       1 chapter    
 9 Sense & Sensibility         10       1 1          
10 Sense & Sensibility         13       1 the        
# ℹ 725,045 more rows
…
tidy_dickens <- dickens_raw |>
  group_by(title) |>
  mutate(
    linenumber = row_number(),
    chapter    = cumsum(str_detect(
      text,
      regex("^chapter [\\divxlc]", ignore_case = TRUE)
    ))
  ) |>
  ungroup() |>
  unnest_tokens(word, text)

tidy_dickens

# A tibble: 842,966 × 5
   gutenberg_id title                linenumber chapter word  
          <int> <chr>                     <int>   <int> <chr> 
 1           98 A Tale of Two Cities          1       0 a     
 2           98 A Tale of Two Cities          1       0 tale  
 3           98 A Tale of Two Cities          1       0 of    
 4           98 A Tale of Two Cities          1       0 two   
 5           98 A Tale of Two Cities          1       0 cities
 6           98 A Tale of Two Cities          3       0 a     
 7           98 A Tale of Two Cities          3       0 story 
 8           98 A Tale of Two Cities          3       0 of    
 9           98 A Tale of Two Cities          3       0 the   
10           98 A Tale of Two Cities          3       0 french
# ℹ 842,956 more rows
…
